%YAML 1.1
%TAG !u! tag:unity3d.com,2011:
--- !u!114 &11400000
MonoBehaviour:
  m_ObjectHideFlags: 0
  m_CorrespondingSourceObject: {fileID: 0}
  m_PrefabInstance: {fileID: 0}
  m_PrefabAsset: {fileID: 0}
  m_GameObject: {fileID: 0}
  m_Enabled: 1
  m_EditorHideFlags: 0
  m_Script: {fileID: 11500000, guid: 2b38782cd215fcf43b03be5b4dc1a345, type: 3}
  m_Name: Potion_MP_100
  m_EditorClassIdentifier: 
  namePotion: Potion 100 MP
  description: Recovers 100 MP
  quantity: 5
  sprite: {fileID: 21300000, guid: 27bffa79c3bb23b44b9bf56486d6db39, type: 3}
  price: 1000
  mp: 100
