%YAML 1.1
%TAG !u! tag:unity3d.com,2011:
--- !u!114 &11400000
MonoBehaviour:
  m_ObjectHideFlags: 0
  m_CorrespondingSourceObject: {fileID: 0}
  m_PrefabInstance: {fileID: 0}
  m_PrefabAsset: {fileID: 0}
  m_GameObject: {fileID: 0}
  m_Enabled: 1
  m_EditorHideFlags: 0
  m_Script: {fileID: 11500000, guid: 3b7c8c054c598384dafca8c483734f25, type: 3}
  m_Name: Potion_DEF_5
  m_EditorClassIdentifier: 
  namePotion: Potion 5 DEF
  description: Buff DEF by 5
  quantity: 5
  sprite: {fileID: 21300000, guid: 8860d9ae6848e764ebbadb50f82ad83f, type: 3}
  price: 100
  def: 5
