%YAML 1.1
%TAG !u! tag:unity3d.com,2011:
--- !u!114 &11400000
MonoBehaviour:
  m_ObjectHideFlags: 0
  m_CorrespondingSourceObject: {fileID: 0}
  m_PrefabInstance: {fileID: 0}
  m_PrefabAsset: {fileID: 0}
  m_GameObject: {fileID: 0}
  m_Enabled: 1
  m_EditorHideFlags: 0
  m_Script: {fileID: 11500000, guid: e018b5f4cea17844fadaaa6fc9db538f, type: 3}
  m_Name: Potion_HP_100
  m_EditorClassIdentifier: 
  namePotion: Potion 100 HP
  description: Heals 100 HP
  quantity: 5
  sprite: {fileID: 21300000, guid: f300a176a9ddda948a930ba8a0059a29, type: 3}
  price: 500
  hp: 100
