%YAML 1.1
%TAG !u! tag:unity3d.com,2011:
--- !u!114 &11400000
MonoBehaviour:
  m_ObjectHideFlags: 0
  m_CorrespondingSourceObject: {fileID: 0}
  m_PrefabInstance: {fileID: 0}
  m_PrefabAsset: {fileID: 0}
  m_GameObject: {fileID: 0}
  m_Enabled: 1
  m_EditorHideFlags: 0
  m_Script: {fileID: 11500000, guid: 568274660c2644340b3d853aa6a0085f, type: 3}
  m_Name: Ala Mhigan Lance
  m_EditorClassIdentifier: 
  nameObject: Ala Mhigan Lance
  description: 28HP 35ATK 21DEF
  hp: 0
  mp: 28
  atk: 35
  def: 21
  equiped: 0
  sprite: {fileID: 21300000, guid: 3e6012f2b83b2fe44b66c056693ac26f, type: 3}
  price: 1500
  type: 2
