%YAML 1.1
%TAG !u! tag:unity3d.com,2011:
--- !u!114 &11400000
MonoBehaviour:
  m_ObjectHideFlags: 0
  m_CorrespondingSourceObject: {fileID: 0}
  m_PrefabInstance: {fileID: 0}
  m_PrefabAsset: {fileID: 0}
  m_GameObject: {fileID: 0}
  m_Enabled: 1
  m_EditorHideFlags: 0
  m_Script: {fileID: 11500000, guid: 568274660c2644340b3d853aa6a0085f, type: 3}
  m_Name: Fiend Blade
  m_EditorClassIdentifier: 
  nameObject: Fiend Blade
  description: 20HP 41MP 49ATK
  hp: 20
  mp: 41
  atk: 49
  def: 0
  equiped: 0
  sprite: {fileID: 21300000, guid: 64f27adfd99a18c43a3995d37aff600f, type: 3}
  price: 1500
  type: 5
