%YAML 1.1
%TAG !u! tag:unity3d.com,2011:
--- !u!114 &11400000
MonoBehaviour:
  m_ObjectHideFlags: 0
  m_CorrespondingSourceObject: {fileID: 0}
  m_PrefabInstance: {fileID: 0}
  m_PrefabAsset: {fileID: 0}
  m_GameObject: {fileID: 0}
  m_Enabled: 1
  m_EditorHideFlags: 0
  m_Script: {fileID: 11500000, guid: 568274660c2644340b3d853aa6a0085f, type: 3}
  m_Name: Magitek Jamadhars
  m_EditorClassIdentifier: 
  nameObject: Magitek Jamadhars
  description: 24MP 32ATK 10DEF
  hp: 0
  mp: 24
  atk: 32
  def: 10
  equiped: 0
  sprite: {fileID: 21300000, guid: a76d019d29d0a0442a26f19c45b4a775, type: 3}
  price: 1500
  type: 7
