%YAML 1.1
%TAG !u! tag:unity3d.com,2011:
--- !u!114 &11400000
MonoBehaviour:
  m_ObjectHideFlags: 0
  m_CorrespondingSourceObject: {fileID: 0}
  m_PrefabInstance: {fileID: 0}
  m_PrefabAsset: {fileID: 0}
  m_GameObject: {fileID: 0}
  m_Enabled: 1
  m_EditorHideFlags: 0
  m_Script: {fileID: 11500000, guid: 568274660c2644340b3d853aa6a0085f, type: 3}
  m_Name: Hellhound
  m_EditorClassIdentifier: 
  nameObject: Hellhound
  description: 5HP 37MP 5ATK
  hp: 5
  mp: 37
  atk: 5
  def: 0
  equiped: 0
  sprite: {fileID: 21300000, guid: 2953cc1354e57b94199a0d05bda0247c, type: 3}
  price: 500
  type: 6
