%YAML 1.1
%TAG !u! tag:unity3d.com,2011:
--- !u!114 &11400000
MonoBehaviour:
  m_ObjectHideFlags: 0
  m_CorrespondingSourceObject: {fileID: 0}
  m_PrefabInstance: {fileID: 0}
  m_PrefabAsset: {fileID: 0}
  m_GameObject: {fileID: 0}
  m_Enabled: 1
  m_EditorHideFlags: 0
  m_Script: {fileID: 11500000, guid: bb8d95b410800284191a5e2824cedc11, type: 3}
  m_Name: Glorious Heal 1
  m_EditorClassIdentifier: 
  nameSkill: Glorious Heal I
  description: Heals 25HP one team member
  mpcost: 5
  limitSkill: 0
  type: 5
  numTargets: 0
  valor: 25
