%YAML 1.1
%TAG !u! tag:unity3d.com,2011:
--- !u!78 &1
TagManager:
  serializedVersion: 2
  tags:
  - LoadableScene
  - Enemy
  - Character
  layers:
  - Default
  - TransparentFX
  - Ignore Raycast
  - 
  - Water
  - UI
  - 
  - 
  - InitButtons
  - Background
  - Enemies
  - 
  - 
  - 
  - 
  - 
  - 
  - 
  - 
  - 
  - 
  - 
  - 
  - 
  - 
  - 
  - 
  - 
  - 
  - 
  - 
  - 
  m_SortingLayers:
  - name: Default
    uniqueID: 0
    locked: 0
  - name: Characters
    uniqueID: 809490083
    locked: 0
  - name: BackgroundUp
    uniqueID: 2395225265
    locked: 0
  - name: UI
    uniqueID: 1166402189
    locked: 0
