%YAML 1.1
%TAG !u! tag:unity3d.com,2011:
--- !u!74 &7400000
AnimationClip:
  m_ObjectHideFlags: 0
  m_CorrespondingSourceObject: {fileID: 0}
  m_PrefabInstance: {fileID: 0}
  m_PrefabAsset: {fileID: 0}
  m_Name: RoseliaLimit
  serializedVersion: 6
  m_Legacy: 0
  m_Compressed: 0
  m_UseHighQualityCurve: 1
  m_RotationCurves: []
  m_CompressedRotationCurves: []
  m_EulerCurves: []
  m_PositionCurves:
  - curve:
      serializedVersion: 2
      m_Curve:
      - serializedVersion: 3
        time: 0
        value: {x: 0.032, y: 0.463, z: 0}
        inSlope: {x: 0, y: 0, z: 0}
        outSlope: {x: 0, y: 0, z: 0}
        tangentMode: 0
        weightedMode: 0
        inWeight: {x: 0, y: 0.33333334, z: 0.33333334}
        outWeight: {x: 0, y: 0.33333334, z: 0.33333334}
      m_PreInfinity: 2
      m_PostInfinity: 2
      m_RotationOrder: 4
    path: Sprite
  m_ScaleCurves: []
  m_FloatCurves: []
  m_PPtrCurves:
  - curve:
    - time: 0
      value: {fileID: 2337859409598093530, guid: ba08ea1ee4168ae4089980ce5e06834c,
        type: 3}
    - time: 0.083333336
      value: {fileID: -2717971252781745273, guid: ba08ea1ee4168ae4089980ce5e06834c,
        type: 3}
    - time: 0.16666667
      value: {fileID: 631113268777995781, guid: ba08ea1ee4168ae4089980ce5e06834c,
        type: 3}
    - time: 0.25
      value: {fileID: 7931326047126461779, guid: ba08ea1ee4168ae4089980ce5e06834c,
        type: 3}
    - time: 0.33333334
      value: {fileID: 4686149182075095914, guid: ba08ea1ee4168ae4089980ce5e06834c,
        type: 3}
    - time: 0.41666666
      value: {fileID: 7742470849681331612, guid: ba08ea1ee4168ae4089980ce5e06834c,
        type: 3}
    - time: 0.5
      value: {fileID: 9196287075922240415, guid: ba08ea1ee4168ae4089980ce5e06834c,
        type: 3}
    - time: 0.5833333
      value: {fileID: -789441225936363209, guid: ba08ea1ee4168ae4089980ce5e06834c,
        type: 3}
    - time: 0.6666667
      value: {fileID: 322893508065473226, guid: ba08ea1ee4168ae4089980ce5e06834c,
        type: 3}
    - time: 0.75
      value: {fileID: 6716818175297386427, guid: ba08ea1ee4168ae4089980ce5e06834c,
        type: 3}
    - time: 0.8333333
      value: {fileID: 7091689548370736072, guid: ba08ea1ee4168ae4089980ce5e06834c,
        type: 3}
    - time: 0.9166667
      value: {fileID: -1208536339870575132, guid: ba08ea1ee4168ae4089980ce5e06834c,
        type: 3}
    - time: 1
      value: {fileID: 1870416192369439843, guid: ba08ea1ee4168ae4089980ce5e06834c,
        type: 3}
    - time: 1.0833334
      value: {fileID: 8711733509197818325, guid: ba08ea1ee4168ae4089980ce5e06834c,
        type: 3}
    - time: 1.1666666
      value: {fileID: -3476572592719811776, guid: ba08ea1ee4168ae4089980ce5e06834c,
        type: 3}
    - time: 1.25
      value: {fileID: 5072839388740708654, guid: ba08ea1ee4168ae4089980ce5e06834c,
        type: 3}
    - time: 1.3333334
      value: {fileID: 2463766429384667518, guid: ba08ea1ee4168ae4089980ce5e06834c,
        type: 3}
    - time: 1.4166666
      value: {fileID: -6944674285721272923, guid: ba08ea1ee4168ae4089980ce5e06834c,
        type: 3}
    - time: 1.5
      value: {fileID: 7446961923034483913, guid: ba08ea1ee4168ae4089980ce5e06834c,
        type: 3}
    - time: 1.5833334
      value: {fileID: -6403537235177042478, guid: ba08ea1ee4168ae4089980ce5e06834c,
        type: 3}
    - time: 1.6666666
      value: {fileID: -5210751361458796739, guid: ba08ea1ee4168ae4089980ce5e06834c,
        type: 3}
    - time: 1.75
      value: {fileID: -2580217216926328387, guid: ba08ea1ee4168ae4089980ce5e06834c,
        type: 3}
    - time: 1.8333334
      value: {fileID: 7158126951397749960, guid: ba08ea1ee4168ae4089980ce5e06834c,
        type: 3}
    - time: 1.9166666
      value: {fileID: -3205279421753565481, guid: ba08ea1ee4168ae4089980ce5e06834c,
        type: 3}
    - time: 2
      value: {fileID: -1443328296543346552, guid: ba08ea1ee4168ae4089980ce5e06834c,
        type: 3}
    - time: 2.0833333
      value: {fileID: 1500742582083621137, guid: ba08ea1ee4168ae4089980ce5e06834c,
        type: 3}
    - time: 2.1666667
      value: {fileID: 4718968258883055506, guid: ba08ea1ee4168ae4089980ce5e06834c,
        type: 3}
    - time: 2.25
      value: {fileID: -2374831956970772358, guid: ba08ea1ee4168ae4089980ce5e06834c,
        type: 3}
    - time: 2.3333333
      value: {fileID: 6508962066332152986, guid: ba08ea1ee4168ae4089980ce5e06834c,
        type: 3}
    - time: 2.4166667
      value: {fileID: -1260785762799706763, guid: ba08ea1ee4168ae4089980ce5e06834c,
        type: 3}
    - time: 2.5
      value: {fileID: 8402986647677245737, guid: ba08ea1ee4168ae4089980ce5e06834c,
        type: 3}
    - time: 2.5833333
      value: {fileID: 106743706159897735, guid: ba08ea1ee4168ae4089980ce5e06834c,
        type: 3}
    attribute: m_Sprite
    path: Sprite
    classID: 212
    script: {fileID: 0}
  m_SampleRate: 12
  m_WrapMode: 0
  m_Bounds:
    m_Center: {x: 0, y: 0, z: 0}
    m_Extent: {x: 0, y: 0, z: 0}
  m_ClipBindingConstant:
    genericBindings:
    - serializedVersion: 2
      path: 850496168
      attribute: 0
      script: {fileID: 0}
      typeID: 212
      customType: 23
      isPPtrCurve: 1
    - serializedVersion: 2
      path: 850496168
      attribute: 1
      script: {fileID: 0}
      typeID: 4
      customType: 0
      isPPtrCurve: 0
    pptrCurveMapping:
    - {fileID: 2337859409598093530, guid: ba08ea1ee4168ae4089980ce5e06834c, type: 3}
    - {fileID: -2717971252781745273, guid: ba08ea1ee4168ae4089980ce5e06834c, type: 3}
    - {fileID: 631113268777995781, guid: ba08ea1ee4168ae4089980ce5e06834c, type: 3}
    - {fileID: 7931326047126461779, guid: ba08ea1ee4168ae4089980ce5e06834c, type: 3}
    - {fileID: 4686149182075095914, guid: ba08ea1ee4168ae4089980ce5e06834c, type: 3}
    - {fileID: 7742470849681331612, guid: ba08ea1ee4168ae4089980ce5e06834c, type: 3}
    - {fileID: 9196287075922240415, guid: ba08ea1ee4168ae4089980ce5e06834c, type: 3}
    - {fileID: -789441225936363209, guid: ba08ea1ee4168ae4089980ce5e06834c, type: 3}
    - {fileID: 322893508065473226, guid: ba08ea1ee4168ae4089980ce5e06834c, type: 3}
    - {fileID: 6716818175297386427, guid: ba08ea1ee4168ae4089980ce5e06834c, type: 3}
    - {fileID: 7091689548370736072, guid: ba08ea1ee4168ae4089980ce5e06834c, type: 3}
    - {fileID: -1208536339870575132, guid: ba08ea1ee4168ae4089980ce5e06834c, type: 3}
    - {fileID: 1870416192369439843, guid: ba08ea1ee4168ae4089980ce5e06834c, type: 3}
    - {fileID: 8711733509197818325, guid: ba08ea1ee4168ae4089980ce5e06834c, type: 3}
    - {fileID: -3476572592719811776, guid: ba08ea1ee4168ae4089980ce5e06834c, type: 3}
    - {fileID: 5072839388740708654, guid: ba08ea1ee4168ae4089980ce5e06834c, type: 3}
    - {fileID: 2463766429384667518, guid: ba08ea1ee4168ae4089980ce5e06834c, type: 3}
    - {fileID: -6944674285721272923, guid: ba08ea1ee4168ae4089980ce5e06834c, type: 3}
    - {fileID: 7446961923034483913, guid: ba08ea1ee4168ae4089980ce5e06834c, type: 3}
    - {fileID: -6403537235177042478, guid: ba08ea1ee4168ae4089980ce5e06834c, type: 3}
    - {fileID: -5210751361458796739, guid: ba08ea1ee4168ae4089980ce5e06834c, type: 3}
    - {fileID: -2580217216926328387, guid: ba08ea1ee4168ae4089980ce5e06834c, type: 3}
    - {fileID: 7158126951397749960, guid: ba08ea1ee4168ae4089980ce5e06834c, type: 3}
    - {fileID: -3205279421753565481, guid: ba08ea1ee4168ae4089980ce5e06834c, type: 3}
    - {fileID: -1443328296543346552, guid: ba08ea1ee4168ae4089980ce5e06834c, type: 3}
    - {fileID: 1500742582083621137, guid: ba08ea1ee4168ae4089980ce5e06834c, type: 3}
    - {fileID: 4718968258883055506, guid: ba08ea1ee4168ae4089980ce5e06834c, type: 3}
    - {fileID: -2374831956970772358, guid: ba08ea1ee4168ae4089980ce5e06834c, type: 3}
    - {fileID: 6508962066332152986, guid: ba08ea1ee4168ae4089980ce5e06834c, type: 3}
    - {fileID: -1260785762799706763, guid: ba08ea1ee4168ae4089980ce5e06834c, type: 3}
    - {fileID: 8402986647677245737, guid: ba08ea1ee4168ae4089980ce5e06834c, type: 3}
    - {fileID: 106743706159897735, guid: ba08ea1ee4168ae4089980ce5e06834c, type: 3}
  m_AnimationClipSettings:
    serializedVersion: 2
    m_AdditiveReferencePoseClip: {fileID: 0}
    m_AdditiveReferencePoseTime: 0
    m_StartTime: 0
    m_StopTime: 2.6666665
    m_OrientationOffsetY: 0
    m_Level: 0
    m_CycleOffset: 0
    m_HasAdditiveReferencePose: 0
    m_LoopTime: 1
    m_LoopBlend: 0
    m_LoopBlendOrientation: 0
    m_LoopBlendPositionY: 0
    m_LoopBlendPositionXZ: 0
    m_KeepOriginalOrientation: 0
    m_KeepOriginalPositionY: 1
    m_KeepOriginalPositionXZ: 0
    m_HeightFromFeet: 0
    m_Mirror: 0
  m_EditorCurves:
  - curve:
      serializedVersion: 2
      m_Curve:
      - serializedVersion: 3
        time: 0
        value: 0.032
        inSlope: 0
        outSlope: 0
        tangentMode: 136
        weightedMode: 0
        inWeight: 0
        outWeight: 0
      m_PreInfinity: 2
      m_PostInfinity: 2
      m_RotationOrder: 4
    attribute: m_LocalPosition.x
    path: Sprite
    classID: 4
    script: {fileID: 0}
  - curve:
      serializedVersion: 2
      m_Curve:
      - serializedVersion: 3
        time: 0
        value: 0.463
        inSlope: 0
        outSlope: 0
        tangentMode: 136
        weightedMode: 0
        inWeight: 0
        outWeight: 0
      m_PreInfinity: 2
      m_PostInfinity: 2
      m_RotationOrder: 4
    attribute: m_LocalPosition.y
    path: Sprite
    classID: 4
    script: {fileID: 0}
  - curve:
      serializedVersion: 2
      m_Curve:
      - serializedVersion: 3
        time: 0
        value: 0
        inSlope: 0
        outSlope: 0
        tangentMode: 136
        weightedMode: 0
        inWeight: 0
        outWeight: 0
      m_PreInfinity: 2
      m_PostInfinity: 2
      m_RotationOrder: 4
    attribute: m_LocalPosition.z
    path: Sprite
    classID: 4
    script: {fileID: 0}
  m_EulerEditorCurves: []
  m_HasGenericRootTransform: 0
  m_HasMotionFloatCurves: 0
  m_Events: []
