%YAML 1.1
%TAG !u! tag:unity3d.com,2011:
--- !u!74 &7400000
AnimationClip:
  m_ObjectHideFlags: 0
  m_CorrespondingSourceObject: {fileID: 0}
  m_PrefabInstance: {fileID: 0}
  m_PrefabAsset: {fileID: 0}
  m_Name: RoseliaWinBefore
  serializedVersion: 6
  m_Legacy: 0
  m_Compressed: 0
  m_UseHighQualityCurve: 1
  m_RotationCurves: []
  m_CompressedRotationCurves: []
  m_EulerCurves: []
  m_PositionCurves:
  - curve:
      serializedVersion: 2
      m_Curve:
      - serializedVersion: 3
        time: 0
        value: {x: -0.015, y: -0.052, z: 0}
        inSlope: {x: 0, y: 0, z: 0}
        outSlope: {x: 0, y: 0, z: 0}
        tangentMode: 0
        weightedMode: 0
        inWeight: {x: 0, y: 0.33333334, z: 0.33333334}
        outWeight: {x: 0, y: 0.33333334, z: 0.33333334}
      m_PreInfinity: 2
      m_PostInfinity: 2
      m_RotationOrder: 4
    path: Sprite
  m_ScaleCurves: []
  m_FloatCurves: []
  m_PPtrCurves:
  - curve:
    - time: 0
      value: {fileID: -2298330278027694447, guid: da1e365c4584baf4c86b8ffb1df8a667,
        type: 3}
    - time: 0.1
      value: {fileID: 1722926882262381136, guid: da1e365c4584baf4c86b8ffb1df8a667,
        type: 3}
    - time: 0.2
      value: {fileID: 1469960384860960565, guid: da1e365c4584baf4c86b8ffb1df8a667,
        type: 3}
    - time: 0.3
      value: {fileID: -8349594599588997188, guid: da1e365c4584baf4c86b8ffb1df8a667,
        type: 3}
    - time: 0.4
      value: {fileID: 2991227210392732890, guid: da1e365c4584baf4c86b8ffb1df8a667,
        type: 3}
    - time: 0.5
      value: {fileID: 5772363787705827469, guid: da1e365c4584baf4c86b8ffb1df8a667,
        type: 3}
    - time: 0.6
      value: {fileID: 7948834981655539572, guid: da1e365c4584baf4c86b8ffb1df8a667,
        type: 3}
    - time: 0.7
      value: {fileID: -2820974179294095882, guid: da1e365c4584baf4c86b8ffb1df8a667,
        type: 3}
    - time: 0.8
      value: {fileID: -4421423660865258534, guid: da1e365c4584baf4c86b8ffb1df8a667,
        type: 3}
    - time: 0.9
      value: {fileID: -3929893446535592846, guid: da1e365c4584baf4c86b8ffb1df8a667,
        type: 3}
    - time: 1
      value: {fileID: 4582703072746971689, guid: da1e365c4584baf4c86b8ffb1df8a667,
        type: 3}
    - time: 1.1
      value: {fileID: 2563714916394339236, guid: da1e365c4584baf4c86b8ffb1df8a667,
        type: 3}
    attribute: m_Sprite
    path: Sprite
    classID: 212
    script: {fileID: 0}
  m_SampleRate: 10
  m_WrapMode: 0
  m_Bounds:
    m_Center: {x: 0, y: 0, z: 0}
    m_Extent: {x: 0, y: 0, z: 0}
  m_ClipBindingConstant:
    genericBindings:
    - serializedVersion: 2
      path: 850496168
      attribute: 0
      script: {fileID: 0}
      typeID: 212
      customType: 23
      isPPtrCurve: 1
    - serializedVersion: 2
      path: 850496168
      attribute: 1
      script: {fileID: 0}
      typeID: 4
      customType: 0
      isPPtrCurve: 0
    pptrCurveMapping:
    - {fileID: -2298330278027694447, guid: da1e365c4584baf4c86b8ffb1df8a667, type: 3}
    - {fileID: 1722926882262381136, guid: da1e365c4584baf4c86b8ffb1df8a667, type: 3}
    - {fileID: 1469960384860960565, guid: da1e365c4584baf4c86b8ffb1df8a667, type: 3}
    - {fileID: -8349594599588997188, guid: da1e365c4584baf4c86b8ffb1df8a667, type: 3}
    - {fileID: 2991227210392732890, guid: da1e365c4584baf4c86b8ffb1df8a667, type: 3}
    - {fileID: 5772363787705827469, guid: da1e365c4584baf4c86b8ffb1df8a667, type: 3}
    - {fileID: 7948834981655539572, guid: da1e365c4584baf4c86b8ffb1df8a667, type: 3}
    - {fileID: -2820974179294095882, guid: da1e365c4584baf4c86b8ffb1df8a667, type: 3}
    - {fileID: -4421423660865258534, guid: da1e365c4584baf4c86b8ffb1df8a667, type: 3}
    - {fileID: -3929893446535592846, guid: da1e365c4584baf4c86b8ffb1df8a667, type: 3}
    - {fileID: 4582703072746971689, guid: da1e365c4584baf4c86b8ffb1df8a667, type: 3}
    - {fileID: 2563714916394339236, guid: da1e365c4584baf4c86b8ffb1df8a667, type: 3}
  m_AnimationClipSettings:
    serializedVersion: 2
    m_AdditiveReferencePoseClip: {fileID: 0}
    m_AdditiveReferencePoseTime: 0
    m_StartTime: 0
    m_StopTime: 1.2
    m_OrientationOffsetY: 0
    m_Level: 0
    m_CycleOffset: 0
    m_HasAdditiveReferencePose: 0
    m_LoopTime: 1
    m_LoopBlend: 0
    m_LoopBlendOrientation: 0
    m_LoopBlendPositionY: 0
    m_LoopBlendPositionXZ: 0
    m_KeepOriginalOrientation: 0
    m_KeepOriginalPositionY: 1
    m_KeepOriginalPositionXZ: 0
    m_HeightFromFeet: 0
    m_Mirror: 0
  m_EditorCurves:
  - curve:
      serializedVersion: 2
      m_Curve:
      - serializedVersion: 3
        time: 0
        value: -0.015
        inSlope: 0
        outSlope: 0
        tangentMode: 136
        weightedMode: 0
        inWeight: 0
        outWeight: 0
      m_PreInfinity: 2
      m_PostInfinity: 2
      m_RotationOrder: 4
    attribute: m_LocalPosition.x
    path: Sprite
    classID: 4
    script: {fileID: 0}
  - curve:
      serializedVersion: 2
      m_Curve:
      - serializedVersion: 3
        time: 0
        value: -0.052
        inSlope: 0
        outSlope: 0
        tangentMode: 136
        weightedMode: 0
        inWeight: 0
        outWeight: 0
      m_PreInfinity: 2
      m_PostInfinity: 2
      m_RotationOrder: 4
    attribute: m_LocalPosition.y
    path: Sprite
    classID: 4
    script: {fileID: 0}
  - curve:
      serializedVersion: 2
      m_Curve:
      - serializedVersion: 3
        time: 0
        value: 0
        inSlope: 0
        outSlope: 0
        tangentMode: 136
        weightedMode: 0
        inWeight: 0
        outWeight: 0
      m_PreInfinity: 2
      m_PostInfinity: 2
      m_RotationOrder: 4
    attribute: m_LocalPosition.z
    path: Sprite
    classID: 4
    script: {fileID: 0}
  m_EulerEditorCurves: []
  m_HasGenericRootTransform: 0
  m_HasMotionFloatCurves: 0
  m_Events: []
