%YAML 1.1
%TAG !u! tag:unity3d.com,2011:
--- !u!114 &11400000
MonoBehaviour:
  m_ObjectHideFlags: 0
  m_CorrespondingSourceObject: {fileID: 0}
  m_PrefabInstance: {fileID: 0}
  m_PrefabAsset: {fileID: 0}
  m_GameObject: {fileID: 0}
  m_Enabled: 1
  m_EditorHideFlags: 0
  m_Script: {fileID: 11500000, guid: ee9d1232b0d1ae447bec505753d0e48a, type: 3}
  m_Name: Bronze_Hoplon
  m_EditorClassIdentifier: 
  nameObject: Bronze Hoplon
  description: 5HP 5DEF
  hp: 5
  mp: 0
  atk: 0
  def: 5
  equiped: 0
  sprite: {fileID: 21300000, guid: 3b1de66464c61ea4b91de820d7cea2a4, type: 3}
  price: 400
