%YAML 1.1
%TAG !u! tag:unity3d.com,2011:
--- !u!114 &11400000
MonoBehaviour:
  m_ObjectHideFlags: 0
  m_CorrespondingSourceObject: {fileID: 0}
  m_PrefabInstance: {fileID: 0}
  m_PrefabAsset: {fileID: 0}
  m_GameObject: {fileID: 0}
  m_Enabled: 1
  m_EditorHideFlags: 0
  m_Script: {fileID: 11500000, guid: ee9d1232b0d1ae447bec505753d0e48a, type: 3}
  m_Name: Seeing_Horde_Shield
  m_EditorClassIdentifier: 
  nameObject: Seeing Horde Shield
  description: 20HP 20ATK
  hp: 20
  mp: 0
  atk: 20
  def: 0
  equiped: 0
  sprite: {fileID: 21300000, guid: 1a90c2895d4dc68469a9bb1a0aa4d29d, type: 3}
  price: 1200
