%YAML 1.1
%TAG !u! tag:unity3d.com,2011:
--- !u!114 &11400000
MonoBehaviour:
  m_ObjectHideFlags: 0
  m_CorrespondingSourceObject: {fileID: 0}
  m_PrefabInstance: {fileID: 0}
  m_PrefabAsset: {fileID: 0}
  m_GameObject: {fileID: 0}
  m_Enabled: 1
  m_EditorHideFlags: 0
  m_Script: {fileID: 11500000, guid: 568274660c2644340b3d853aa6a0085f, type: 3}
  m_Name: Garuda Axe
  m_EditorClassIdentifier: 
  nameObject: Garuda Scream
  description: 15MP 34ATK 12DEF
  hp: 0
  mp: 15
  atk: 34
  def: 12
  equiped: 0
  sprite: {fileID: 21300000, guid: 7f4fd41b7c9bb3f4584dabde703d2fc4, type: 3}
  price: 1500
  type: 1
