%YAML 1.1
%TAG !u! tag:unity3d.com,2011:
--- !u!114 &11400000
MonoBehaviour:
  m_ObjectHideFlags: 0
  m_CorrespondingSourceObject: {fileID: 0}
  m_PrefabInstance: {fileID: 0}
  m_PrefabAsset: {fileID: 0}
  m_GameObject: {fileID: 0}
  m_Enabled: 1
  m_EditorHideFlags: 0
  m_Script: {fileID: 11500000, guid: 800117ec0b0fe174eb8b9377ae460515, type: 3}
  m_Name: Tree1
  m_EditorClassIdentifier: 
  active: 1
  hp: 200
  hpMax: 200
  atk: 10
  def: 5
  xp: 0
