%YAML 1.1
%TAG !u! tag:unity3d.com,2011:
--- !u!114 &11400000
MonoBehaviour:
  m_ObjectHideFlags: 0
  m_CorrespondingSourceObject: {fileID: 0}
  m_PrefabInstance: {fileID: 0}
  m_PrefabAsset: {fileID: 0}
  m_GameObject: {fileID: 0}
  m_Enabled: 1
  m_EditorHideFlags: 0
  m_Script: {fileID: 11500000, guid: 39985524abc5ae142ab0f166708037d1, type: 3}
  m_Name: ActualTeam
  m_EditorClassIdentifier: 
  myActualTeam:
  - {fileID: 5971582998337557675, guid: 2f5ee6cb30cd0b14fbab0be10b3593d5, type: 3}
