%YAML 1.1
%TAG !u! tag:unity3d.com,2011:
--- !u!114 &11400000
MonoBehaviour:
  m_ObjectHideFlags: 0
  m_CorrespondingSourceObject: {fileID: 0}
  m_PrefabInstance: {fileID: 0}
  m_PrefabAsset: {fileID: 0}
  m_GameObject: {fileID: 0}
  m_Enabled: 1
  m_EditorHideFlags: 0
  m_Script: {fileID: 11500000, guid: cf0f5103522e9c644a8b21533f7de355, type: 3}
  m_Name: Jade
  m_EditorClassIdentifier: 
  nameCharacter: Jade
  hp: 60
  maxhp: 60
  mp: 20
  maxmp: 20
  atk: 27
  def: 20
  xp: 0
  lvl: 1
  hpLvl1: 60
  mpLvl1: 20
  atkLvl1: 27
  defLvl1: 20
  xpNextLevel: 100
  type: 2
  actualWeapon: {fileID: 0}
  object1: {fileID: 0}
  object2: {fileID: 0}
  skill1: {fileID: 11400000, guid: a7abd5eff21c40248b6184c0d56f76dd, type: 2}
  skill2: {fileID: 11400000, guid: 4a108329a0101ff42898436e65efe5e6, type: 2}
  skill3: {fileID: 11400000, guid: 60d7dc13f25790b45abb1869d7c977c6, type: 2}
  limitSkill1: {fileID: 11400000, guid: e191f1d2bb0eb974198c5310e15b6e17, type: 2}
  limitSkill2: {fileID: 11400000, guid: de042ad2b55951742ba092a01b38f7ae, type: 2}
  limitSkill3: {fileID: 11400000, guid: 0403743661a219248b0673dd337eda13, type: 2}
  splashart: {fileID: 21300000, guid: fb992a9d5b31e9147b67a9e4d3511a4b, type: 3}
