%YAML 1.1
%TAG !u! tag:unity3d.com,2011:
--- !u!74 &7400000
AnimationClip:
  m_ObjectHideFlags: 0
  m_CorrespondingSourceObject: {fileID: 0}
  m_PrefabInstance: {fileID: 0}
  m_PrefabAsset: {fileID: 0}
  m_Name: TizLimit
  serializedVersion: 6
  m_Legacy: 0
  m_Compressed: 0
  m_UseHighQualityCurve: 1
  m_RotationCurves: []
  m_CompressedRotationCurves: []
  m_EulerCurves: []
  m_PositionCurves:
  - curve:
      serializedVersion: 2
      m_Curve:
      - serializedVersion: 3
        time: 0
        value: {x: -1.411, y: 0.068, z: 0}
        inSlope: {x: 0, y: 0, z: 0}
        outSlope: {x: 0, y: 0, z: 0}
        tangentMode: 0
        weightedMode: 0
        inWeight: {x: 0, y: 0.33333334, z: 0.33333334}
        outWeight: {x: 0, y: 0.33333334, z: 0.33333334}
      m_PreInfinity: 2
      m_PostInfinity: 2
      m_RotationOrder: 4
    path: Sprite
  m_ScaleCurves: []
  m_FloatCurves: []
  m_PPtrCurves:
  - curve:
    - time: 0
      value: {fileID: 284288383062630753, guid: 1c5d4327aedd8e74aac433b70cf244a6,
        type: 3}
    - time: 0.083333336
      value: {fileID: 7816338724485254689, guid: 1c5d4327aedd8e74aac433b70cf244a6,
        type: 3}
    - time: 0.16666667
      value: {fileID: 124173900364006915, guid: 1c5d4327aedd8e74aac433b70cf244a6,
        type: 3}
    - time: 0.25
      value: {fileID: 8531598004514481336, guid: 1c5d4327aedd8e74aac433b70cf244a6,
        type: 3}
    - time: 0.33333334
      value: {fileID: -7015378698828702503, guid: 1c5d4327aedd8e74aac433b70cf244a6,
        type: 3}
    - time: 0.41666666
      value: {fileID: 3356686573067427396, guid: 1c5d4327aedd8e74aac433b70cf244a6,
        type: 3}
    - time: 0.5
      value: {fileID: 5964897326695054204, guid: 1c5d4327aedd8e74aac433b70cf244a6,
        type: 3}
    - time: 0.5833333
      value: {fileID: 8084951333312946669, guid: 1c5d4327aedd8e74aac433b70cf244a6,
        type: 3}
    - time: 0.6666667
      value: {fileID: 7572409564358398888, guid: 1c5d4327aedd8e74aac433b70cf244a6,
        type: 3}
    - time: 0.75
      value: {fileID: 1097193186126228442, guid: 1c5d4327aedd8e74aac433b70cf244a6,
        type: 3}
    - time: 0.8333333
      value: {fileID: 5965920372828571072, guid: 1c5d4327aedd8e74aac433b70cf244a6,
        type: 3}
    - time: 0.9166667
      value: {fileID: -8294637216713685330, guid: 1c5d4327aedd8e74aac433b70cf244a6,
        type: 3}
    - time: 1
      value: {fileID: -8696840086818069954, guid: 1c5d4327aedd8e74aac433b70cf244a6,
        type: 3}
    - time: 1.0833334
      value: {fileID: -632566337647756749, guid: 1c5d4327aedd8e74aac433b70cf244a6,
        type: 3}
    - time: 1.1666666
      value: {fileID: 5236151251052142049, guid: 1c5d4327aedd8e74aac433b70cf244a6,
        type: 3}
    - time: 1.25
      value: {fileID: -837431053313888152, guid: 1c5d4327aedd8e74aac433b70cf244a6,
        type: 3}
    - time: 1.3333334
      value: {fileID: 8129219024569382307, guid: 1c5d4327aedd8e74aac433b70cf244a6,
        type: 3}
    - time: 1.4166666
      value: {fileID: 2485236497062647099, guid: 1c5d4327aedd8e74aac433b70cf244a6,
        type: 3}
    - time: 1.5
      value: {fileID: 2363097268927067159, guid: 1c5d4327aedd8e74aac433b70cf244a6,
        type: 3}
    - time: 1.5833334
      value: {fileID: -7886718135414007133, guid: 1c5d4327aedd8e74aac433b70cf244a6,
        type: 3}
    - time: 1.6666666
      value: {fileID: -7185209486848085810, guid: 1c5d4327aedd8e74aac433b70cf244a6,
        type: 3}
    - time: 1.75
      value: {fileID: -2557126447750450775, guid: 1c5d4327aedd8e74aac433b70cf244a6,
        type: 3}
    - time: 1.8333334
      value: {fileID: 8743424754480018835, guid: 1c5d4327aedd8e74aac433b70cf244a6,
        type: 3}
    - time: 1.9166666
      value: {fileID: -2968818063620195343, guid: 1c5d4327aedd8e74aac433b70cf244a6,
        type: 3}
    - time: 2
      value: {fileID: -7138783536502971359, guid: 1c5d4327aedd8e74aac433b70cf244a6,
        type: 3}
    - time: 2.0833333
      value: {fileID: -7993541216037481769, guid: 1c5d4327aedd8e74aac433b70cf244a6,
        type: 3}
    - time: 2.1666667
      value: {fileID: -4486864579782357197, guid: 1c5d4327aedd8e74aac433b70cf244a6,
        type: 3}
    - time: 2.25
      value: {fileID: -8522385113291630602, guid: 1c5d4327aedd8e74aac433b70cf244a6,
        type: 3}
    - time: 2.3333333
      value: {fileID: -713660275906766564, guid: 1c5d4327aedd8e74aac433b70cf244a6,
        type: 3}
    - time: 2.4166667
      value: {fileID: -8301417600431629700, guid: 1c5d4327aedd8e74aac433b70cf244a6,
        type: 3}
    - time: 2.5
      value: {fileID: 4700390545387286538, guid: 1c5d4327aedd8e74aac433b70cf244a6,
        type: 3}
    - time: 2.5833333
      value: {fileID: -8608420652052068974, guid: 1c5d4327aedd8e74aac433b70cf244a6,
        type: 3}
    - time: 2.6666667
      value: {fileID: -7347849778768986803, guid: 1c5d4327aedd8e74aac433b70cf244a6,
        type: 3}
    - time: 2.75
      value: {fileID: 1477888957483811211, guid: 1c5d4327aedd8e74aac433b70cf244a6,
        type: 3}
    - time: 2.8333333
      value: {fileID: -259980519400418275, guid: 1c5d4327aedd8e74aac433b70cf244a6,
        type: 3}
    - time: 2.9166667
      value: {fileID: -5450628850306152331, guid: 1c5d4327aedd8e74aac433b70cf244a6,
        type: 3}
    attribute: m_Sprite
    path: Sprite
    classID: 212
    script: {fileID: 0}
  m_SampleRate: 12
  m_WrapMode: 0
  m_Bounds:
    m_Center: {x: 0, y: 0, z: 0}
    m_Extent: {x: 0, y: 0, z: 0}
  m_ClipBindingConstant:
    genericBindings:
    - serializedVersion: 2
      path: 850496168
      attribute: 0
      script: {fileID: 0}
      typeID: 212
      customType: 23
      isPPtrCurve: 1
    - serializedVersion: 2
      path: 850496168
      attribute: 1
      script: {fileID: 0}
      typeID: 4
      customType: 0
      isPPtrCurve: 0
    pptrCurveMapping:
    - {fileID: 284288383062630753, guid: 1c5d4327aedd8e74aac433b70cf244a6, type: 3}
    - {fileID: 7816338724485254689, guid: 1c5d4327aedd8e74aac433b70cf244a6, type: 3}
    - {fileID: 124173900364006915, guid: 1c5d4327aedd8e74aac433b70cf244a6, type: 3}
    - {fileID: 8531598004514481336, guid: 1c5d4327aedd8e74aac433b70cf244a6, type: 3}
    - {fileID: -7015378698828702503, guid: 1c5d4327aedd8e74aac433b70cf244a6, type: 3}
    - {fileID: 3356686573067427396, guid: 1c5d4327aedd8e74aac433b70cf244a6, type: 3}
    - {fileID: 5964897326695054204, guid: 1c5d4327aedd8e74aac433b70cf244a6, type: 3}
    - {fileID: 8084951333312946669, guid: 1c5d4327aedd8e74aac433b70cf244a6, type: 3}
    - {fileID: 7572409564358398888, guid: 1c5d4327aedd8e74aac433b70cf244a6, type: 3}
    - {fileID: 1097193186126228442, guid: 1c5d4327aedd8e74aac433b70cf244a6, type: 3}
    - {fileID: 5965920372828571072, guid: 1c5d4327aedd8e74aac433b70cf244a6, type: 3}
    - {fileID: -8294637216713685330, guid: 1c5d4327aedd8e74aac433b70cf244a6, type: 3}
    - {fileID: -8696840086818069954, guid: 1c5d4327aedd8e74aac433b70cf244a6, type: 3}
    - {fileID: -632566337647756749, guid: 1c5d4327aedd8e74aac433b70cf244a6, type: 3}
    - {fileID: 5236151251052142049, guid: 1c5d4327aedd8e74aac433b70cf244a6, type: 3}
    - {fileID: -837431053313888152, guid: 1c5d4327aedd8e74aac433b70cf244a6, type: 3}
    - {fileID: 8129219024569382307, guid: 1c5d4327aedd8e74aac433b70cf244a6, type: 3}
    - {fileID: 2485236497062647099, guid: 1c5d4327aedd8e74aac433b70cf244a6, type: 3}
    - {fileID: 2363097268927067159, guid: 1c5d4327aedd8e74aac433b70cf244a6, type: 3}
    - {fileID: -7886718135414007133, guid: 1c5d4327aedd8e74aac433b70cf244a6, type: 3}
    - {fileID: -7185209486848085810, guid: 1c5d4327aedd8e74aac433b70cf244a6, type: 3}
    - {fileID: -2557126447750450775, guid: 1c5d4327aedd8e74aac433b70cf244a6, type: 3}
    - {fileID: 8743424754480018835, guid: 1c5d4327aedd8e74aac433b70cf244a6, type: 3}
    - {fileID: -2968818063620195343, guid: 1c5d4327aedd8e74aac433b70cf244a6, type: 3}
    - {fileID: -7138783536502971359, guid: 1c5d4327aedd8e74aac433b70cf244a6, type: 3}
    - {fileID: -7993541216037481769, guid: 1c5d4327aedd8e74aac433b70cf244a6, type: 3}
    - {fileID: -4486864579782357197, guid: 1c5d4327aedd8e74aac433b70cf244a6, type: 3}
    - {fileID: -8522385113291630602, guid: 1c5d4327aedd8e74aac433b70cf244a6, type: 3}
    - {fileID: -713660275906766564, guid: 1c5d4327aedd8e74aac433b70cf244a6, type: 3}
    - {fileID: -8301417600431629700, guid: 1c5d4327aedd8e74aac433b70cf244a6, type: 3}
    - {fileID: 4700390545387286538, guid: 1c5d4327aedd8e74aac433b70cf244a6, type: 3}
    - {fileID: -8608420652052068974, guid: 1c5d4327aedd8e74aac433b70cf244a6, type: 3}
    - {fileID: -7347849778768986803, guid: 1c5d4327aedd8e74aac433b70cf244a6, type: 3}
    - {fileID: 1477888957483811211, guid: 1c5d4327aedd8e74aac433b70cf244a6, type: 3}
    - {fileID: -259980519400418275, guid: 1c5d4327aedd8e74aac433b70cf244a6, type: 3}
    - {fileID: -5450628850306152331, guid: 1c5d4327aedd8e74aac433b70cf244a6, type: 3}
  m_AnimationClipSettings:
    serializedVersion: 2
    m_AdditiveReferencePoseClip: {fileID: 0}
    m_AdditiveReferencePoseTime: 0
    m_StartTime: 0
    m_StopTime: 3
    m_OrientationOffsetY: 0
    m_Level: 0
    m_CycleOffset: 0
    m_HasAdditiveReferencePose: 0
    m_LoopTime: 1
    m_LoopBlend: 0
    m_LoopBlendOrientation: 0
    m_LoopBlendPositionY: 0
    m_LoopBlendPositionXZ: 0
    m_KeepOriginalOrientation: 0
    m_KeepOriginalPositionY: 1
    m_KeepOriginalPositionXZ: 0
    m_HeightFromFeet: 0
    m_Mirror: 0
  m_EditorCurves:
  - curve:
      serializedVersion: 2
      m_Curve:
      - serializedVersion: 3
        time: 0
        value: -1.411
        inSlope: 0
        outSlope: 0
        tangentMode: 136
        weightedMode: 0
        inWeight: 0
        outWeight: 0
      m_PreInfinity: 2
      m_PostInfinity: 2
      m_RotationOrder: 4
    attribute: m_LocalPosition.x
    path: Sprite
    classID: 4
    script: {fileID: 0}
  - curve:
      serializedVersion: 2
      m_Curve:
      - serializedVersion: 3
        time: 0
        value: 0.068
        inSlope: 0
        outSlope: 0
        tangentMode: 136
        weightedMode: 0
        inWeight: 0
        outWeight: 0
      m_PreInfinity: 2
      m_PostInfinity: 2
      m_RotationOrder: 4
    attribute: m_LocalPosition.y
    path: Sprite
    classID: 4
    script: {fileID: 0}
  - curve:
      serializedVersion: 2
      m_Curve:
      - serializedVersion: 3
        time: 0
        value: 0
        inSlope: 0
        outSlope: 0
        tangentMode: 136
        weightedMode: 0
        inWeight: 0
        outWeight: 0
      m_PreInfinity: 2
      m_PostInfinity: 2
      m_RotationOrder: 4
    attribute: m_LocalPosition.z
    path: Sprite
    classID: 4
    script: {fileID: 0}
  m_EulerEditorCurves: []
  m_HasGenericRootTransform: 0
  m_HasMotionFloatCurves: 0
  m_Events: []
