%YAML 1.1
%TAG !u! tag:unity3d.com,2011:
--- !u!114 &11400000
MonoBehaviour:
  m_ObjectHideFlags: 0
  m_CorrespondingSourceObject: {fileID: 0}
  m_PrefabInstance: {fileID: 0}
  m_PrefabAsset: {fileID: 0}
  m_GameObject: {fileID: 0}
  m_Enabled: 1
  m_EditorHideFlags: 0
  m_Script: {fileID: 11500000, guid: bb8d95b410800284191a5e2824cedc11, type: 3}
  m_Name: Darkness Breath 1
  m_EditorClassIdentifier: 
  nameSkill: Darkness Breath I
  description: Debuffs 8ATK all enemies
  mpcost: 10
  limitSkill: 1
  type: 3
  numTargets: 1
  valor: 8
