%YAML 1.1
%TAG !u! tag:unity3d.com,2011:
--- !u!114 &11400000
MonoBehaviour:
  m_ObjectHideFlags: 0
  m_CorrespondingSourceObject: {fileID: 0}
  m_PrefabInstance: {fileID: 0}
  m_PrefabAsset: {fileID: 0}
  m_GameObject: {fileID: 0}
  m_Enabled: 1
  m_EditorHideFlags: 0
  m_Script: {fileID: 11500000, guid: 568274660c2644340b3d853aa6a0085f, type: 3}
  m_Name: Weathered Sequence
  m_EditorClassIdentifier: 
  nameObject: Weathered Sequence
  description: 30MP 34ATK 31DEF
  hp: 0
  mp: 30
  atk: 34
  def: 31
  equiped: 0
  sprite: {fileID: 21300000, guid: 74b7c014c3af54a4da443fac8f445625, type: 3}
  price: 1500
  type: 0
