%YAML 1.1
%TAG !u! tag:unity3d.com,2011:
--- !u!74 &7400000
AnimationClip:
  m_ObjectHideFlags: 0
  m_CorrespondingSourceObject: {fileID: 0}
  m_PrefabInstance: {fileID: 0}
  m_PrefabAsset: {fileID: 0}
  m_Name: IshilIdle_StandBy
  serializedVersion: 6
  m_Legacy: 0
  m_Compressed: 0
  m_UseHighQualityCurve: 1
  m_RotationCurves: []
  m_CompressedRotationCurves: []
  m_EulerCurves: []
  m_PositionCurves: []
  m_ScaleCurves: []
  m_FloatCurves: []
  m_PPtrCurves:
  - curve:
    - time: 0
      value: {fileID: 4148081490204246765, guid: 48e4eab9a3e65dc41be38e3575ed66dd,
        type: 3}
    - time: 0.1
      value: {fileID: 8695919497784631558, guid: 48e4eab9a3e65dc41be38e3575ed66dd,
        type: 3}
    - time: 0.2
      value: {fileID: -7811264868003618143, guid: 48e4eab9a3e65dc41be38e3575ed66dd,
        type: 3}
    - time: 0.3
      value: {fileID: 8790085087736898840, guid: 48e4eab9a3e65dc41be38e3575ed66dd,
        type: 3}
    - time: 0.4
      value: {fileID: -4157148896894055633, guid: 48e4eab9a3e65dc41be38e3575ed66dd,
        type: 3}
    - time: 0.5
      value: {fileID: -6424179272604508668, guid: 48e4eab9a3e65dc41be38e3575ed66dd,
        type: 3}
    - time: 0.6
      value: {fileID: 4391207984043637226, guid: 48e4eab9a3e65dc41be38e3575ed66dd,
        type: 3}
    - time: 0.7
      value: {fileID: -487155929424214475, guid: 48e4eab9a3e65dc41be38e3575ed66dd,
        type: 3}
    attribute: m_Sprite
    path: Sprite
    classID: 212
    script: {fileID: 0}
  m_SampleRate: 10
  m_WrapMode: 0
  m_Bounds:
    m_Center: {x: 0, y: 0, z: 0}
    m_Extent: {x: 0, y: 0, z: 0}
  m_ClipBindingConstant:
    genericBindings:
    - serializedVersion: 2
      path: 850496168
      attribute: 0
      script: {fileID: 0}
      typeID: 212
      customType: 23
      isPPtrCurve: 1
    pptrCurveMapping:
    - {fileID: 4148081490204246765, guid: 48e4eab9a3e65dc41be38e3575ed66dd, type: 3}
    - {fileID: 8695919497784631558, guid: 48e4eab9a3e65dc41be38e3575ed66dd, type: 3}
    - {fileID: -7811264868003618143, guid: 48e4eab9a3e65dc41be38e3575ed66dd, type: 3}
    - {fileID: 8790085087736898840, guid: 48e4eab9a3e65dc41be38e3575ed66dd, type: 3}
    - {fileID: -4157148896894055633, guid: 48e4eab9a3e65dc41be38e3575ed66dd, type: 3}
    - {fileID: -6424179272604508668, guid: 48e4eab9a3e65dc41be38e3575ed66dd, type: 3}
    - {fileID: 4391207984043637226, guid: 48e4eab9a3e65dc41be38e3575ed66dd, type: 3}
    - {fileID: -487155929424214475, guid: 48e4eab9a3e65dc41be38e3575ed66dd, type: 3}
  m_AnimationClipSettings:
    serializedVersion: 2
    m_AdditiveReferencePoseClip: {fileID: 0}
    m_AdditiveReferencePoseTime: 0
    m_StartTime: 0
    m_StopTime: 0.8
    m_OrientationOffsetY: 0
    m_Level: 0
    m_CycleOffset: 0
    m_HasAdditiveReferencePose: 0
    m_LoopTime: 1
    m_LoopBlend: 0
    m_LoopBlendOrientation: 0
    m_LoopBlendPositionY: 0
    m_LoopBlendPositionXZ: 0
    m_KeepOriginalOrientation: 0
    m_KeepOriginalPositionY: 1
    m_KeepOriginalPositionXZ: 0
    m_HeightFromFeet: 0
    m_Mirror: 0
  m_EditorCurves: []
  m_EulerEditorCurves: []
  m_HasGenericRootTransform: 0
  m_HasMotionFloatCurves: 0
  m_Events: []
