%YAML 1.1
%TAG !u! tag:unity3d.com,2011:
--- !u!74 &7400000
AnimationClip:
  m_ObjectHideFlags: 0
  m_CorrespondingSourceObject: {fileID: 0}
  m_PrefabInstance: {fileID: 0}
  m_PrefabAsset: {fileID: 0}
  m_Name: IshilWinBefore
  serializedVersion: 6
  m_Legacy: 0
  m_Compressed: 0
  m_UseHighQualityCurve: 1
  m_RotationCurves: []
  m_CompressedRotationCurves: []
  m_EulerCurves: []
  m_PositionCurves:
  - curve:
      serializedVersion: 2
      m_Curve:
      - serializedVersion: 3
        time: 0
        value: {x: -0.028, y: 0.014, z: 0}
        inSlope: {x: 0, y: 0, z: 0}
        outSlope: {x: 0, y: 0, z: 0}
        tangentMode: 0
        weightedMode: 0
        inWeight: {x: 0, y: 0.33333334, z: 0.33333334}
        outWeight: {x: 0, y: 0.33333334, z: 0.33333334}
      m_PreInfinity: 2
      m_PostInfinity: 2
      m_RotationOrder: 4
    path: Sprite
  m_ScaleCurves: []
  m_FloatCurves: []
  m_PPtrCurves:
  - curve:
    - time: 0
      value: {fileID: -5324574707655742540, guid: 3d054bcf8dc888a4fb4937aff0f4b84e,
        type: 3}
    - time: 0.083333336
      value: {fileID: 6104611208611962122, guid: 3d054bcf8dc888a4fb4937aff0f4b84e,
        type: 3}
    - time: 0.16666667
      value: {fileID: 76547002570926372, guid: 3d054bcf8dc888a4fb4937aff0f4b84e, type: 3}
    - time: 0.25
      value: {fileID: 3562488546300678765, guid: 3d054bcf8dc888a4fb4937aff0f4b84e,
        type: 3}
    - time: 0.33333334
      value: {fileID: 526111840594868774, guid: 3d054bcf8dc888a4fb4937aff0f4b84e,
        type: 3}
    - time: 0.41666666
      value: {fileID: 1543288064366611156, guid: 3d054bcf8dc888a4fb4937aff0f4b84e,
        type: 3}
    - time: 0.5
      value: {fileID: 6725189638558575976, guid: 3d054bcf8dc888a4fb4937aff0f4b84e,
        type: 3}
    - time: 0.5833333
      value: {fileID: -8167540880528150446, guid: 3d054bcf8dc888a4fb4937aff0f4b84e,
        type: 3}
    - time: 0.6666667
      value: {fileID: -8982459242490592042, guid: 3d054bcf8dc888a4fb4937aff0f4b84e,
        type: 3}
    - time: 0.75
      value: {fileID: 8501498447633072075, guid: 3d054bcf8dc888a4fb4937aff0f4b84e,
        type: 3}
    - time: 0.8333333
      value: {fileID: 5491374827061182979, guid: 3d054bcf8dc888a4fb4937aff0f4b84e,
        type: 3}
    - time: 0.9166667
      value: {fileID: -8859433093757385212, guid: 3d054bcf8dc888a4fb4937aff0f4b84e,
        type: 3}
    - time: 1
      value: {fileID: -4724741203936863030, guid: 3d054bcf8dc888a4fb4937aff0f4b84e,
        type: 3}
    - time: 1.0833334
      value: {fileID: -14609066822890668, guid: 3d054bcf8dc888a4fb4937aff0f4b84e,
        type: 3}
    - time: 1.1666666
      value: {fileID: -3945414494129825339, guid: 3d054bcf8dc888a4fb4937aff0f4b84e,
        type: 3}
    - time: 1.25
      value: {fileID: -2445512087682759495, guid: 3d054bcf8dc888a4fb4937aff0f4b84e,
        type: 3}
    - time: 1.3333334
      value: {fileID: 4846518916145323005, guid: 3d054bcf8dc888a4fb4937aff0f4b84e,
        type: 3}
    - time: 1.4166666
      value: {fileID: 3813622982025538663, guid: 3d054bcf8dc888a4fb4937aff0f4b84e,
        type: 3}
    - time: 1.5
      value: {fileID: 3729921546345820018, guid: 3d054bcf8dc888a4fb4937aff0f4b84e,
        type: 3}
    - time: 1.5833334
      value: {fileID: -249001399346870751, guid: 3d054bcf8dc888a4fb4937aff0f4b84e,
        type: 3}
    attribute: m_Sprite
    path: Sprite
    classID: 212
    script: {fileID: 0}
  m_SampleRate: 12
  m_WrapMode: 0
  m_Bounds:
    m_Center: {x: 0, y: 0, z: 0}
    m_Extent: {x: 0, y: 0, z: 0}
  m_ClipBindingConstant:
    genericBindings:
    - serializedVersion: 2
      path: 850496168
      attribute: 0
      script: {fileID: 0}
      typeID: 212
      customType: 23
      isPPtrCurve: 1
    - serializedVersion: 2
      path: 850496168
      attribute: 1
      script: {fileID: 0}
      typeID: 4
      customType: 0
      isPPtrCurve: 0
    pptrCurveMapping:
    - {fileID: -5324574707655742540, guid: 3d054bcf8dc888a4fb4937aff0f4b84e, type: 3}
    - {fileID: 6104611208611962122, guid: 3d054bcf8dc888a4fb4937aff0f4b84e, type: 3}
    - {fileID: 76547002570926372, guid: 3d054bcf8dc888a4fb4937aff0f4b84e, type: 3}
    - {fileID: 3562488546300678765, guid: 3d054bcf8dc888a4fb4937aff0f4b84e, type: 3}
    - {fileID: 526111840594868774, guid: 3d054bcf8dc888a4fb4937aff0f4b84e, type: 3}
    - {fileID: 1543288064366611156, guid: 3d054bcf8dc888a4fb4937aff0f4b84e, type: 3}
    - {fileID: 6725189638558575976, guid: 3d054bcf8dc888a4fb4937aff0f4b84e, type: 3}
    - {fileID: -8167540880528150446, guid: 3d054bcf8dc888a4fb4937aff0f4b84e, type: 3}
    - {fileID: -8982459242490592042, guid: 3d054bcf8dc888a4fb4937aff0f4b84e, type: 3}
    - {fileID: 8501498447633072075, guid: 3d054bcf8dc888a4fb4937aff0f4b84e, type: 3}
    - {fileID: 5491374827061182979, guid: 3d054bcf8dc888a4fb4937aff0f4b84e, type: 3}
    - {fileID: -8859433093757385212, guid: 3d054bcf8dc888a4fb4937aff0f4b84e, type: 3}
    - {fileID: -4724741203936863030, guid: 3d054bcf8dc888a4fb4937aff0f4b84e, type: 3}
    - {fileID: -14609066822890668, guid: 3d054bcf8dc888a4fb4937aff0f4b84e, type: 3}
    - {fileID: -3945414494129825339, guid: 3d054bcf8dc888a4fb4937aff0f4b84e, type: 3}
    - {fileID: -2445512087682759495, guid: 3d054bcf8dc888a4fb4937aff0f4b84e, type: 3}
    - {fileID: 4846518916145323005, guid: 3d054bcf8dc888a4fb4937aff0f4b84e, type: 3}
    - {fileID: 3813622982025538663, guid: 3d054bcf8dc888a4fb4937aff0f4b84e, type: 3}
    - {fileID: 3729921546345820018, guid: 3d054bcf8dc888a4fb4937aff0f4b84e, type: 3}
    - {fileID: -249001399346870751, guid: 3d054bcf8dc888a4fb4937aff0f4b84e, type: 3}
  m_AnimationClipSettings:
    serializedVersion: 2
    m_AdditiveReferencePoseClip: {fileID: 0}
    m_AdditiveReferencePoseTime: 0
    m_StartTime: 0
    m_StopTime: 1.6666667
    m_OrientationOffsetY: 0
    m_Level: 0
    m_CycleOffset: 0
    m_HasAdditiveReferencePose: 0
    m_LoopTime: 1
    m_LoopBlend: 0
    m_LoopBlendOrientation: 0
    m_LoopBlendPositionY: 0
    m_LoopBlendPositionXZ: 0
    m_KeepOriginalOrientation: 0
    m_KeepOriginalPositionY: 1
    m_KeepOriginalPositionXZ: 0
    m_HeightFromFeet: 0
    m_Mirror: 0
  m_EditorCurves:
  - curve:
      serializedVersion: 2
      m_Curve:
      - serializedVersion: 3
        time: 0
        value: -0.028
        inSlope: 0
        outSlope: 0
        tangentMode: 136
        weightedMode: 0
        inWeight: 0
        outWeight: 0
      m_PreInfinity: 2
      m_PostInfinity: 2
      m_RotationOrder: 4
    attribute: m_LocalPosition.x
    path: Sprite
    classID: 4
    script: {fileID: 0}
  - curve:
      serializedVersion: 2
      m_Curve:
      - serializedVersion: 3
        time: 0
        value: 0.014
        inSlope: 0
        outSlope: 0
        tangentMode: 136
        weightedMode: 0
        inWeight: 0
        outWeight: 0
      m_PreInfinity: 2
      m_PostInfinity: 2
      m_RotationOrder: 4
    attribute: m_LocalPosition.y
    path: Sprite
    classID: 4
    script: {fileID: 0}
  - curve:
      serializedVersion: 2
      m_Curve:
      - serializedVersion: 3
        time: 0
        value: 0
        inSlope: 0
        outSlope: 0
        tangentMode: 136
        weightedMode: 0
        inWeight: 0
        outWeight: 0
      m_PreInfinity: 2
      m_PostInfinity: 2
      m_RotationOrder: 4
    attribute: m_LocalPosition.z
    path: Sprite
    classID: 4
    script: {fileID: 0}
  m_EulerEditorCurves: []
  m_HasGenericRootTransform: 0
  m_HasMotionFloatCurves: 0
  m_Events: []
