{
    "nameCharacter": "Malphasie",
    "hp": 43,
    "maxhp": 43,
    "mp": 43,
    "maxmp": 43,
    "atk": 42,
    "def": 15,
    "xp": 0,
    "lvl": 1,
    "hpLvl1": 43,
    "mpLvl1": 43,
    "atkLvl1": 42,
    "defLvl1": 15,
    "xpNextLevel": 100,
    "type": 6,
    "actualWeapon": {
        "instanceID": 0
    },
    "object1": {
        "instanceID": 0
    },
    "object2": {
        "instanceID": 0
    },
    "skill1": {
        "instanceID": 15644
    },
    "skill2": {
        "instanceID": 15646
    },
    "skill3": {
        "instanceID": 15648
    },
    "limitSkill1": {
        "instanceID": 15650
    },
    "limitSkill2": {
        "instanceID": 15652
    },
    "limitSkill3": {
        "instanceID": 15654
    },
    "splashart": {
        "instanceID": 15656
    }
}