{
    "nameCharacter": "Mercedes",
    "hp": 62,
    "maxhp": 62,
    "mp": 31,
    "maxmp": 31,
    "atk": 22,
    "def": 21,
    "xp": 0,
    "lvl": 1,
    "hpLvl1": 62,
    "mpLvl1": 31,
    "atkLvl1": 22,
    "defLvl1": 21,
    "xpNextLevel": 100,
    "type": 1,
    "actualWeapon": {
        "instanceID": 0
    },
    "object1": {
        "instanceID": 0
    },
    "object2": {
        "instanceID": 0
    },
    "skill1": {
        "instanceID": 15658
    },
    "skill2": {
        "instanceID": 15660
    },
    "skill3": {
        "instanceID": 15662
    },
    "limitSkill1": {
        "instanceID": 15664
    },
    "limitSkill2": {
        "instanceID": 15666
    },
    "limitSkill3": {
        "instanceID": 15668
    },
    "splashart": {
        "instanceID": 15670
    }
}