{
    "usableItems": [
        {
            "instanceID": 15290
        },
        {
            "instanceID": 15298
        },
        {
            "instanceID": 15306
        },
        {
            "instanceID": 15314
        }
    ],
    "weapons": [
        {
            "instanceID": 15454
        }
    ],
    "equipableObjects": [],
    "recruitmentChar": [],
    "money": 5000
}