%YAML 1.1
%TAG !u! tag:unity3d.com,2011:
--- !u!114 &11400000
MonoBehaviour:
  m_ObjectHideFlags: 0
  m_CorrespondingSourceObject: {fileID: 0}
  m_PrefabInstance: {fileID: 0}
  m_PrefabAsset: {fileID: 0}
  m_GameObject: {fileID: 0}
  m_Enabled: 1
  m_EditorHideFlags: 0
  m_Script: {fileID: 11500000, guid: 568274660c2644340b3d853aa6a0085f, type: 3}
  m_Name: Shinryu Katana
  m_EditorClassIdentifier: 
  nameObject: Shinryu Katana
  description: 20HP 20MP 35ATK
  hp: 20
  mp: 20
  atk: 35
  def: 0
  equiped: 0
  sprite: {fileID: 21300000, guid: 57b1f8c36062850409a5a522acce58ee, type: 3}
  price: 1500
  type: 4
